Predictions from a bagged model — predict.bagger • baguette
…
      ...
      Not currently used.

    Examples

data(airquality)

set.seed(7687)
mars_bag <- bagger(Ozone ~ ., data = airquality, base_model = "MARS", times = 5)
predict(mars_bag, new_data = airquality[, -1])

#> # A tibble: 153 × 1
#>    .pred
#>    <dbl>
#>  1  38.6
#>  2  19.8
#>  3  15.8
#>  4  18.5
#>  5 NaN  
#>  6 NaN  
#>  7  25.2
#>  8  14.4
#>  9  12.4
#> 10  31.0
#> # … with 143 more rows
…
